take home exercise 3 – IS415-GAA
…
We then convert the state and district columns to upper case for matching.

crime_df <- crime_df %>%
              mutate(year = year(date),
                     state = toupper(state),
                     district = toupper(district))
crime_df

# A tibble: 19,152 × 7
   state    district category type           date       crimes  year
   <chr>    <chr>    <chr>    <chr>          <date>      <dbl> <dbl>
 1 MALAYSIA ALL      assault  all            2016-01-01  22327  2016
 2 MALAYSIA ALL      assault  all            2017-01-01  21366  2017
 3 MALAYSIA ALL      assault  all            2018-01-01  16902  2018
 4 MALAYSIA ALL      assault  all            2019-01-01  16489  2019
 5 MALAYSIA ALL      assault  all            2020-01-01  13279  2020
 6 MALAYSIA ALL      assault  all            2021-01-01  11495  2021
 7 MALAYSIA ALL      assault  all            2022-01-01  10348  2022
 8 MALAYSIA ALL      assault  all            2023-01-01  10453  2023
 9 MALAYSIA ALL      assault  causing_injury 2016-01-01   5531  2016
10 MALAYSIA ALL      assault  causing_injury 2017-01-01   5024  2017
# ℹ 19,142 more rows

population_df <- population_df %>%
              mutate(year = year(date),
                     state = toupper(state),
                     district = toupper(district))
population_df

# A tibble: 319,200 × 8
   state district   date       sex   age     ethnicity        population  year
   <chr> <chr>      <date>     <chr> <chr>   <chr>                 <dbl> <dbl>
 1 JOHOR BATU PAHAT 2020-01-01 both  overall overall               495.   2020
 2 JOHOR BATU PAHAT 2020-01-01 both  overall bumi_malay            311.   2020
 3 JOHOR BATU PAHAT 2020-01-01 both  overall bumi_other              5.1  2020
 4 JOHOR BATU PAHAT 2020-01-01 both  overall chinese               140.   2020
 5 JOHOR BATU PAHAT 2020-01-01 both  overall indian                  6.9  2020
 6 JOHOR BATU PAHAT 2020-01-01 both  overall other_citizen           1.8  2020
 7 JOHOR BATU PAHAT 2020-01-01 both  overall other_noncitizen       30.2  2020
 8 JOHOR BATU PAHAT 2020-01-01 both  0-4     overall                30.3  2020
 9 JOHOR BATU PAHAT 2020-01-01 both  0-4     bumi_malay             21.3  2020
10 JOHOR BATU PAHAT 2020-01-01 both  0-4     bumi_other              0.5  2020
# ℹ 319,190 more rows

mys_sf <- mys_sf %>%
          mutate(ADM1_EN = toupper(ADM1_EN),
                 ADM2_EN = toupper(ADM2_EN))

mys_sf

Simple feature collection with 144 features and 14 fields
Geometry type: MULTIPOLYGON
Dimension:     XY
Bounding box:  xmin: 184853.1 ymin: 94420.8 xmax: 2380932 ymax: 829136
Projected CRS: Kertau (RSO) / RSO Malaya (m)
# A tibble: 144 × 15
   ADM2_EN  ADM2_PCODE ADM2_REF ADM2ALT1EN ADM2ALT2EN ADM1_EN ADM1_PCODE ADM0_EN
 * <chr>    <chr>      <chr>    <chr>      <chr>      <chr>   <chr>      <chr>  
 1 BATU PA… MY0101     <NA>     <NA>       <NA>       JOHOR   MY01       Malays…
 2 JOHOR B… MY0102     <NA>     <NA>       <NA>       JOHOR   MY01       Malays…
 3 KLUANG   MY0103     <NA>     <NA>       <NA>       JOHOR   MY01       Malays…
 4 KOTA TI… MY0104     <NA>     <NA>       <NA>       JOHOR   MY01       Malays…
 5 KULAIJA… MY0105     <NA>     <NA>       <NA>       JOHOR   MY01       Malays…
 6 LEDANG   MY0106     <NA>     <NA>       <NA>       JOHOR   MY01       Malays…
 7 MERSING  MY0107     <NA>     <NA>       <NA>       JOHOR   MY01       Malays…
 8 MUAR     MY0108     <NA>     <NA>       <NA>       JOHOR   MY01       Malays…
 9 PONTIAN  MY0109     <NA>     <NA>       <NA>       JOHOR   MY01       Malays…
10 SEGAMAT  MY0110     <NA>     <NA>       <NA>       JOHOR   MY01       Malays…
# ℹ 134 more rows
# ℹ 7 more variables: ADM0_PCODE <chr>, date <date>, validOn <date>,
#   validTo <date>, Shape_Leng <dbl>, Shape_Area <dbl>,
#   geometry <MULTIPOLYGON [m]>
…
In this case study, for ease of analysis, we choose to focus on West Malaysia, and thus will be filtering out Sarawak, Sabah and Labuan, which are not the focus of our current analysis.

mys_sf <- mys_sf %>%
          filter(ADM1_EN != 'W.P. LABUAN' & ADM1_EN != 'SABAH' & ADM1_EN != 'SARAWAK') %>%
          mutate(ADM1_EN = replace(ADM1_EN, ADM1_EN == 'W.P. KUALA LUMPUR', 'KUALA LUMPUR'),
                 ADM1_EN = replace(ADM1_EN, ADM1_EN == 'W.P. PUTRAJAYA', 'KUALA LUMPUR'))

mys_sf

Simple feature collection with 87 features and 14 fields
Geometry type: MULTIPOLYGON
Dimension:     XY
Bounding box:  xmin: 184853.1 ymin: 139843.3 xmax: 728635.8 ymax: 744607.2
Projected CRS: Kertau (RSO) / RSO Malaya (m)
# A tibble: 87 × 15
   ADM2_EN  ADM2_PCODE ADM2_REF ADM2ALT1EN ADM2ALT2EN ADM1_EN ADM1_PCODE ADM0_EN
 * <chr>    <chr>      <chr>    <chr>      <chr>      <chr>   <chr>      <chr>  
 1 BATU PA… MY0101     <NA>     <NA>       <NA>       JOHOR   MY01       Malays…
 2 JOHOR B… MY0102     <NA>     <NA>       <NA>       JOHOR   MY01       Malays…
 3 KLUANG   MY0103     <NA>     <NA>       <NA>       JOHOR   MY01       Malays…
 4 KOTA TI… MY0104     <NA>     <NA>       <NA>       JOHOR   MY01       Malays…
 5 KULAIJA… MY0105     <NA>     <NA>       <NA>       JOHOR   MY01       Malays…
 6 LEDANG   MY0106     <NA>     <NA>       <NA>       JOHOR   MY01       Malays…
 7 MERSING  MY0107     <NA>     <NA>       <NA>       JOHOR   MY01       Malays…
 8 MUAR     MY0108     <NA>     <NA>       <NA>       JOHOR   MY01       Malays…
 9 PONTIAN  MY0109     <NA>     <NA>       <NA>       JOHOR   MY01       Malays…
10 SEGAMAT  MY0110     <NA>     <NA>       <NA>       JOHOR   MY01       Malays…
# ℹ 77 more rows
# ℹ 7 more variables: ADM0_PCODE <chr>, date <date>, validOn <date>,
#   validTo <date>, Shape_Leng <dbl>, Shape_Area <dbl>,
#   geometry <MULTIPOLYGON [m]>

crime_df <- crime_df %>%
              filter(state != 'MALAYSIA' & state != 'SABAH' & state != 'SARAWAK' & 
                     district != 'ALL' & type != 'all') %>%
              mutate(state = replace(state, state == 'W.P. KUALA LUMPUR', 'KUALA LUMPUR'))
crime_df

# A tibble: 10,368 × 7
   state district   category type           date       crimes  year
   <chr> <chr>      <chr>    <chr>          <date>      <dbl> <dbl>
 1 JOHOR BATU PAHAT assault  causing_injury 2016-01-01     39  2016
 2 JOHOR BATU PAHAT assault  causing_injury 2017-01-01     41  2017
 3 JOHOR BATU PAHAT assault  causing_injury 2018-01-01     28  2018
 4 JOHOR BATU PAHAT assault  causing_injury 2019-01-01     41  2019
 5 JOHOR BATU PAHAT assault  causing_injury 2020-01-01     43  2020
 6 JOHOR BATU PAHAT assault  causing_injury 2021-01-01     22  2021
 7 JOHOR BATU PAHAT assault  causing_injury 2022-01-01     19  2022
 8 JOHOR BATU PAHAT assault  causing_injury 2023-01-01     22  2023
 9 JOHOR BATU PAHAT assault  murder         2016-01-01      6  2016
10 JOHOR BATU PAHAT assault  murder         2017-01-01      0  2017
# ℹ 10,358 more rows

population_df <- population_df %>%
          filter(state != 'SABAH' & state != 'SARAWAK' & state != 'W.P. LABUAN' &
                 sex == "both" & age == "overall" & ethnicity == "overall" ) %>%
          mutate(state = replace(state, state == 'W.P. KUALA LUMPUR', 'KUALA LUMPUR'),
                 state = replace(state, state == 'W.P. PUTRAJAYA', 'KUALA LUMPUR')) %>%
          dplyr::select(state, district, year, population)
population_df

# A tibble: 276 × 4
   state district     year population
   <chr> <chr>       <dbl>      <dbl>
 1 JOHOR BATU PAHAT   2020      495. 
 2 JOHOR JOHOR BAHRU  2020     1711. 
 3 JOHOR KLUANG       2020      324. 
 4 JOHOR KOTA TINGGI  2020      222. 
 5 JOHOR KULAI        2020      330. 
 6 JOHOR MERSING      2020       78.2
 7 JOHOR MUAR         2020      315. 
 8 JOHOR PONTIAN      2020      173. 
 9 JOHOR SEGAMAT      2020      198. 
10 JOHOR TANGKAK      2020      163. 
# ℹ 266 more rows
…
crime_df_mys <- crime_df %>%
  filter(year >= 2019 & year <= 2022) %>%
  left_join(mys_sf, by = c("state" = "ADM1_EN", "district" = "ADM2_EN")) %>%
  dplyr::select(state, district, year, category, type, crimes, Shape_Leng, Shape_Area, geometry)

crime_df_mys <- st_as_sf(crime_df_mys)
crime_df_mys

Simple feature collection with 4128 features and 8 fields
Geometry type: MULTIPOLYGON
Dimension:     XY
Bounding box:  xmin: 184853.1 ymin: 139843.3 xmax: 728635.8 ymax: 744607.2
Projected CRS: Kertau (RSO) / RSO Malaya (m)
# A tibble: 4,128 × 9
# Groups:   state, district, year, category [688]
   state district    year category type             crimes Shape_Leng Shape_Area
   <chr> <chr>      <dbl> <chr>    <chr>             <dbl>      <dbl>      <dbl>
 1 JOHOR BATU PAHAT  2019 assault  causing_injury       41       1.86      0.161
 2 JOHOR BATU PAHAT  2019 assault  murder                3       1.86      0.161
 3 JOHOR BATU PAHAT  2019 assault  rape                 29       1.86      0.161
 4 JOHOR BATU PAHAT  2019 assault  robbery_gang_ar…      0       1.86      0.161
 5 JOHOR BATU PAHAT  2019 assault  robbery_gang_un…     37       1.86      0.161
 6 JOHOR BATU PAHAT  2019 assault  robbery_solo_ar…      0       1.86      0.161
 7 JOHOR BATU PAHAT  2019 assault  robbery_solo_un…     29       1.86      0.161
 8 JOHOR BATU PAHAT  2019 property break_in            157       1.86      0.161
 9 JOHOR BATU PAHAT  2019 property theft_other         127       1.86      0.161
10 JOHOR BATU PAHAT  2019 property theft_vehicle_l…      4       1.86      0.161
# ℹ 4,118 more rows
# ℹ 1 more variable: geometry <MULTIPOLYGON [m]>
…
`summarise()` has grouped output by 'state', 'district'. You can override using
the `.groups` argument.

population_df

# A tibble: 348 × 4
# Groups:   state, district [87]
   state district     year population
   <chr> <chr>       <dbl>      <dbl>
 1 JOHOR BATU PAHAT   2019       495.
 2 JOHOR BATU PAHAT   2020       495.
 3 JOHOR BATU PAHAT   2021       497.
 4 JOHOR BATU PAHAT   2022       498.
 5 JOHOR JOHOR BAHRU  2019      1711.
 6 JOHOR JOHOR BAHRU  2020      1711.
 7 JOHOR JOHOR BAHRU  2021      1715.
 8 JOHOR JOHOR BAHRU  2022      1724.
 9 JOHOR KLUANG       2019       324.
10 JOHOR KLUANG       2020       324.
# ℹ 338 more rows

population_df_mys <- population_df %>%
  left_join(mys_sf, by = c("state" = "ADM1_EN", "district" = "ADM2_EN")) %>%
  dplyr::select(state, district, year, population, geometry)

population_df_mys <- st_as_sf(population_df_mys)
population_df_mys

Simple feature collection with 348 features and 4 fields
Geometry type: MULTIPOLYGON
Dimension:     XY
Bounding box:  xmin: 184853.1 ymin: 139843.3 xmax: 728635.8 ymax: 744607.2
Projected CRS: Kertau (RSO) / RSO Malaya (m)
# A tibble: 348 × 5
# Groups:   state, district [87]
   state district     year population                                   geometry
   <chr> <chr>       <dbl>      <dbl>                         <MULTIPOLYGON [m]>
 1 JOHOR BATU PAHAT   2019       495. (((556714.6 192051.6, 556664.6 192111.5, …
 2 JOHOR BATU PAHAT   2020       495. (((556714.6 192051.6, 556664.6 192111.5, …
 3 JOHOR BATU PAHAT   2021       497. (((556714.6 192051.6, 556664.6 192111.5, …
 4 JOHOR BATU PAHAT   2022       498. (((556714.6 192051.6, 556664.6 192111.5, …
 5 JOHOR JOHOR BAHRU  2019      1711. (((664760.7 157664.3, 664668.2 157664.3, …
 6 JOHOR JOHOR BAHRU  2020      1711. (((664760.7 157664.3, 664668.2 157664.3, …
 7 JOHOR JOHOR BAHRU  2021      1715. (((664760.7 157664.3, 664668.2 157664.3, …
 8 JOHOR JOHOR BAHRU  2022      1724. (((664760.7 157664.3, 664668.2 157664.3, …
 9 JOHOR KLUANG       2019       324. (((583499.3 195230.8, 581600.3 195991.2, …
10 JOHOR KLUANG       2020       324. (((583499.3 195230.8, 581600.3 195991.2, …
# ℹ 338 more rows
…
pokok_sena_rows <- crime_df_mys %>%
  filter(state == "KEDAH") %>%
  group_by(state, year, category, type) %>%
  summarise(crimes = mean(crimes),
            crimes_pc = mean(crimes_pc),
            population = mean(population)) %>% 
  mutate(district = "POKOK SENA")

`summarise()` has grouped output by 'state', 'year', 'category'. You can
override using the `.groups` argument.

pokok_sena_rows

# A tibble: 48 × 8
# Groups:   state, year, category [8]
   state  year category type                crimes crimes_pc population district
   <chr> <dbl> <chr>    <chr>                <dbl>     <dbl>      <dbl> <chr>   
 1 KEDAH  2019 assault  causing_injury      29.8    0.140          189. POKOK S…
 2 KEDAH  2019 assault  murder               1.82   0.0129         189. POKOK S…
 3 KEDAH  2019 assault  rape                13.2    0.0752         189. POKOK S…
 4 KEDAH  2019 assault  robbery_gang_armed   0.182  0.00155        189. POKOK S…
 5 KEDAH  2019 assault  robbery_gang_unar…  25.3    0.0992         189. POKOK S…
 6 KEDAH  2019 assault  robbery_solo_armed   0.182  0.000410       189. POKOK S…
 7 KEDAH  2019 assault  robbery_solo_unar…  14.7    0.0590         189. POKOK S…
 8 KEDAH  2019 property break_in           103.     0.440          189. POKOK S…
 9 KEDAH  2019 property theft_other         86.9    0.479          189. POKOK S…
10 KEDAH  2019 property theft_vehicle_lor…   7.09   0.0202         189. POKOK S…
# ℹ 38 more rows
…
2.3.6.3 Join with District Boundary

crime_df_mys <- crime_df_mys %>%
  left_join(mys_sf, by = c("state" = "ADM1_EN", "district" = "ADM2_EN")) %>%
  dplyr::select(state, district, year, category, type, crimes, crimes_pc, population, geometry)

crime_df_mys <- st_as_sf(crime_df_mys)
crime_df_mys

Simple feature collection with 4176 features and 8 fields
Geometry type: MULTIPOLYGON
Dimension:     XY
Bounding box:  xmin: 184853.1 ymin: 139843.3 xmax: 728635.8 ymax: 744607.2
Projected CRS: Kertau (RSO) / RSO Malaya (m)
# A tibble: 4,176 × 9
# Groups:   state, district, year, category [696]
   state district    year category type              crimes crimes_pc population
   <chr> <chr>      <dbl> <chr>    <chr>              <dbl>     <dbl>      <dbl>
 1 JOHOR BATU PAHAT  2019 assault  causing_injury        41   0.0828        495.
 2 JOHOR BATU PAHAT  2019 assault  murder                 3   0.00606       495.
 3 JOHOR BATU PAHAT  2019 assault  rape                  29   0.0586        495.
 4 JOHOR BATU PAHAT  2019 assault  robbery_gang_arm…      0   0             495.
 5 JOHOR BATU PAHAT  2019 assault  robbery_gang_una…     37   0.0747        495.
 6 JOHOR BATU PAHAT  2019 assault  robbery_solo_arm…      0   0             495.
 7 JOHOR BATU PAHAT  2019 assault  robbery_solo_una…     29   0.0586        495.
 8 JOHOR BATU PAHAT  2019 property break_in             157   0.317         495.
 9 JOHOR BATU PAHAT  2019 property theft_other          127   0.256         495.
10 JOHOR BATU PAHAT  2019 property theft_vehicle_lo…      4   0.00808       495.
# ℹ 4,166 more rows
# ℹ 1 more variable: geometry <MULTIPOLYGON [m]>
…
lisa <- wm_q %>% 
  mutate(local_moran = local_moran(
    total_crimes_pc, nb, wt, nsim = 99),
         .before = 1) %>%
  unnest(local_moran)

lisa

Simple feature collection with 87 features and 17 fields
Geometry type: MULTIPOLYGON
Dimension:     XY
Bounding box:  xmin: 184853.1 ymin: 139843.3 xmax: 728635.8 ymax: 744607.2
Projected CRS: Kertau (RSO) / RSO Malaya (m)
# A tibble: 87 × 18
        ii      eii  var_ii   z_ii   p_ii p_ii_sim p_folded_sim skewness
     <dbl>    <dbl>   <dbl>  <dbl>  <dbl>    <dbl>        <dbl>    <dbl>
 1  0.931   0.0733  0.224    1.81  0.0699     0.02         0.01   -0.776
 2 -0.639   0.00450 0.437   -0.974 0.330      0.24         0.12    0.978
 3  0.319  -0.0136  0.0529   1.44  0.148      0.04         0.02   -1.11 
 4  0.0148 -0.00278 0.00580  0.230 0.818      0.96         0.48   -0.785
 5  0.0716 -0.0366  0.0961   0.349 0.727      0.92         0.46   -0.596
 6  0.779  -0.0610  0.334    1.46  0.146      0.1          0.05   -0.625
 7  0.163   0.0101  0.0281   0.912 0.362      0.34         0.17   -0.331
 8  1.21   -0.0341  0.646    1.55  0.121      0.04         0.02   -0.858
 9  0.260   0.0210  0.249    0.479 0.632      0.76         0.38   -0.603
10  0.352  -0.0139  0.0349   1.96  0.0502     0.02         0.01   -0.764
# ℹ 77 more rows
# ℹ 10 more variables: kurtosis <dbl>, mean <fct>, median <fct>, pysal <fct>,
#   nb <nb>, wt <list>, state <chr>, district <chr>, total_crimes_pc <dbl>,
#   geometry <MULTIPOLYGON [m]>
…
