IS415-GAA - Hands On Exercise 2
…
thailand_sf <- read_sf(dsn = "data", 
                 layer = "tha_admbnda_adm1_rtsd_20220121") %>%
  st_as_sf(coords =c(
    "longitude", "latitude"),
           crs = 4326) %>%
  st_transform(crs = 24047)

thailand_sf

Simple feature collection with 77 features and 16 fields
Geometry type: MULTIPOLYGON
Dimension:     XY
Bounding box:  xmin: 325695.7 ymin: 620511.7 xmax: 1214171 ymax: 2262888
Projected CRS: Indian 1975 / UTM zone 47N
# A tibble: 77 × 17
   Shape_Leng Shape_Area ADM1_EN          ADM1_TH ADM1_PCODE ADM1_REF ADM1ALT1EN
 *      <dbl>      <dbl> <chr>            <chr>   <chr>      <chr>    <chr>     
 1       2.42     0.131  Bangkok          กรุงเทพ… TH10       <NA>     <NA>      
 2       1.70     0.0793 Samut Prakan     สมุทรปร… TH11       <NA>     <NA>      
 3       1.25     0.0532 Nonthaburi       นนทบุรี   TH12       <NA>     <NA>      
 4       1.88     0.127  Pathum Thani     ปทุมธานี  TH13       <NA>     <NA>      
 5       3.04     0.214  Phra Nakhon Si … พระนคร… TH14       <NA>     <NA>      
 6       1.74     0.0792 Ang Thong        อ่างทอง  TH15       <NA>     <NA>      
 7       5.69     0.546  Lop Buri         ลพบุรี    TH16       <NA>     <NA>      
 8       1.78     0.0687 Sing Buri        สิงห์บุรี   TH17       <NA>     <NA>      
 9       2.90     0.209  Chai Nat         ชัยนาท   TH18       <NA>     <NA>      
10       4.77     0.292  Saraburi         สระบุรี   TH19       <NA>     <NA>      
# ℹ 67 more rows
# ℹ 10 more variables: ADM1ALT2EN <chr>, ADM1ALT1TH <chr>, ADM1ALT2TH <chr>,
#   ADM0_EN <chr>, ADM0_TH <chr>, ADM0_PCODE <chr>, date <date>,
#   validOn <date>, validTo <date>, geometry <MULTIPOLYGON [m]>
…
2.3.1 Fixing province names

There is a mismatch of the province names between the datasets we are importing. We resolve this by changing the names of provinces in the drug offenses dataset to align.

Loburi -> Lop Buri

Buogkan -> Bueng Kan

drug_offences <- drug_offences %>% 
                  mutate(province_en = replace(province_en, province_en == 'buogkan', 'Bueng Kan')) %>%
                  mutate(province_en = replace(province_en, province_en == 'Loburi', 'Lop Buri'))
drug_offences

# A tibble: 7,392 × 5
   fiscal_year types_of_drug_offenses no_cases province_th   province_en        
         <dbl> <chr>                     <dbl> <chr>         <chr>              
 1        2017 drug_use_cases            11871 กรุงเทพมหานคร  Bangkok            
 2        2017 drug_use_cases              200 ชัยนาท         Chai Nat           
 3        2017 drug_use_cases              553 นนทบุรี         Nonthaburi         
 4        2017 drug_use_cases              450 ปทุมธานี        Pathum Thani       
 5        2017 drug_use_cases              378 พระนครศรีอยุธยา Phra Nakhon Si Ayu…
 6        2017 drug_use_cases              727 ลพบุรี          Lop Buri           
 7        2017 drug_use_cases              820 สมุทรปราการ    Samut Prakan       
 8        2017 drug_use_cases               69 สระบุรี         Saraburi           
 9        2017 drug_use_cases              127 สิงห์บุรี         Sing Buri          
10        2017 drug_use_cases              208 อ่างทอง        Ang Thong          
# ℹ 7,382 more rows
…
drug_offences_thailand <- thailand_sf %>%
  left_join(drug_offences,
            by = c("ADM1_EN" = "province_en",
                  "ADM1_TH" = "province_th")) %>%
  dplyr::select(1:2, 17:20)

drug_offences_thailand

Simple feature collection with 7392 features and 5 fields
Geometry type: MULTIPOLYGON
Dimension:     XY
Bounding box:  xmin: 325695.7 ymin: 620511.7 xmax: 1214171 ymax: 2262888
Projected CRS: Indian 1975 / UTM zone 47N
# A tibble: 7,392 × 6
   Shape_Leng Shape_Area                                    geometry fiscal_year
        <dbl>      <dbl>                          <MULTIPOLYGON [m]>       <dbl>
 1       2.42      0.131 (((674854.6 1542947, 674897.1 1542925, 674…        2017
 2       2.42      0.131 (((674854.6 1542947, 674897.1 1542925, 674…        2018
 3       2.42      0.131 (((674854.6 1542947, 674897.1 1542925, 674…        2019
 4       2.42      0.131 (((674854.6 1542947, 674897.1 1542925, 674…        2020
 5       2.42      0.131 (((674854.6 1542947, 674897.1 1542925, 674…        2021
 6       2.42      0.131 (((674854.6 1542947, 674897.1 1542925, 674…        2022
 7       2.42      0.131 (((674854.6 1542947, 674897.1 1542925, 674…        2017
 8       2.42      0.131 (((674854.6 1542947, 674897.1 1542925, 674…        2018
 9       2.42      0.131 (((674854.6 1542947, 674897.1 1542925, 674…        2019
10       2.42      0.131 (((674854.6 1542947, 674897.1 1542925, 674…        2020
# ℹ 7,382 more rows
# ℹ 2 more variables: types_of_drug_offenses <chr>, no_cases <dbl>
…
3.1.1 Computing Contiguity Spatial Weights

We need to first construct a spatial weight of the study area, used to define the neighbourhood relationships between the provinces in Thailand.

As the dataset we are working with takes a significant time to process due to its large size, we choose to analyse only one fiscal year for efficiency. In this case, we have taken 2019 as it is the most prevalent before 2020 occurred.

drug_offence_list[[3]]

Simple feature collection with 1232 features and 5 fields
Geometry type: MULTIPOLYGON
Dimension:     XY
Bounding box:  xmin: 325695.7 ymin: 620511.7 xmax: 1214171 ymax: 2262888
Projected CRS: Indian 1975 / UTM zone 47N
# A tibble: 1,232 × 6
   Shape_Leng Shape_Area                                    geometry fiscal_year
        <dbl>      <dbl>                          <MULTIPOLYGON [m]>       <dbl>
 1       2.42      0.131 (((674854.6 1542947, 674897.1 1542925, 674…        2019
 2       2.42      0.131 (((674854.6 1542947, 674897.1 1542925, 674…        2019
 3       2.42      0.131 (((674854.6 1542947, 674897.1 1542925, 674…        2019
 4       2.42      0.131 (((674854.6 1542947, 674897.1 1542925, 674…        2019
 5       2.42      0.131 (((674854.6 1542947, 674897.1 1542925, 674…        2019
 6       2.42      0.131 (((674854.6 1542947, 674897.1 1542925, 674…        2019
 7       2.42      0.131 (((674854.6 1542947, 674897.1 1542925, 674…        2019
 8       2.42      0.131 (((674854.6 1542947, 674897.1 1542925, 674…        2019
 9       2.42      0.131 (((674854.6 1542947, 674897.1 1542925, 674…        2019
10       2.42      0.131 (((674854.6 1542947, 674897.1 1542925, 674…        2019
# ℹ 1,222 more rows
# ℹ 2 more variables: types_of_drug_offenses <chr>, no_cases <dbl>
…
HCSA_import_2019 <- wm_idw_import_2019 %>% 
  mutate(local_Gi = local_gstar_perm(
    no_cases, nb, wts, nsim = 99),
         .before = 1) %>%
  unnest(local_Gi)

HCSA_import_2019

Simple feature collection with 77 features and 18 fields
Geometry type: MULTIPOLYGON
Dimension:     XY
Bounding box:  xmin: 325695.7 ymin: 620511.7 xmax: 1214171 ymax: 2262888
Projected CRS: Indian 1975 / UTM zone 47N
# A tibble: 77 × 19
   gi_star cluster     e_gi   var_gi std_dev p_value p_sim p_folded_sim skewness
     <dbl> <fct>      <dbl>    <dbl>   <dbl>   <dbl> <dbl>        <dbl>    <dbl>
 1  -0.510 Low      2.40e-6 1.67e-11  -0.546   0.585  0.4          0.19     2.98
 2  -0.298 Low      1.41e-6 1.86e-11  -0.327   0.744  0.54         0.01     3.73
 3  -0.505 Low      1.07e-6 4.47e-12  -0.505   0.614  0.28         0.01     4.45
 4  -0.482 Low      1.69e-6 7.71e-12  -0.502   0.616  0.84         0.41     2.76
 5  -0.563 Low      1.39e-6 5.56e-12  -0.486   0.627  0.54         0.27     3.69
 6  -0.486 Low      1.59e-6 9.84e-12  -0.508   0.611  0.3          0.01     2.52
 7  -0.656 Low      1.37e-6 2.98e-12  -0.736   0.462  0.32         0.15     1.72
 8  -0.546 Low      1.45e-6 6.30e-12  -0.577   0.564  0.18         0.01     2.79
 9  -0.501 Low      7.47e-7 1.99e-12  -0.530   0.596  0.3          0.01     4.11
10  -0.556 Low      7.84e-7 2.36e-12  -0.511   0.610  0.22         0.01     3.39
# ℹ 67 more rows
# ℹ 10 more variables: kurtosis <dbl>, wts <list>, wt <list>, Shape_Leng <dbl>,
#   Shape_Area <dbl>, geometry <MULTIPOLYGON [m]>, fiscal_year <dbl>,
#   types_of_drug_offenses <chr>, no_cases <dbl>, nb <nb>
…
