IS415-GAA - take home exercise 3
…
There is also an issue of double counting data, where state ‘Malaysia’ comprises of all the crimes, and type of crime ‘all’ also comprises of its type of crime.

As we are doing by state and not by district, we remove the double counting caused by district. At the same time, we will also remove Sabah and Sarawak, which are not the focus of our current analysis.

crime_district <- crime_district %>%
                  filter(state !='Malaysia') %>% 
                  filter(type !='all') %>% 
                  filter(district =='All') %>%
                  filter(state != 'Sabah') %>%
                  filter(state != 'Sarawak') %>%
                  filter(state != 'Labuan')
crime_district

# A tibble: 1,008 × 6
   state district category type           date       crimes
   <chr> <chr>    <chr>    <chr>          <date>      <dbl>
 1 Johor All      assault  causing_injury 2016-01-01    708
 2 Johor All      assault  causing_injury 2017-01-01    614
 3 Johor All      assault  causing_injury 2018-01-01    578
 4 Johor All      assault  causing_injury 2019-01-01    599
 5 Johor All      assault  causing_injury 2020-01-01    447
 6 Johor All      assault  causing_injury 2021-01-01    365
 7 Johor All      assault  causing_injury 2022-01-01    333
 8 Johor All      assault  murder         2016-01-01     70
 9 Johor All      assault  murder         2017-01-01     66
10 Johor All      assault  murder         2018-01-01     43
# ℹ 998 more rows

3.2.2 Resolving mismatch of state names

Some of the province names are mismatched between the crime rate csv file and the shpfile.

crime_district <- crime_district %>% 
                  mutate(state = replace(state, state == 'W.P. Kuala Lumpur', 'Kuala Lumpur'))

crime_district

# A tibble: 1,008 × 6
   state district category type           date       crimes
   <chr> <chr>    <chr>    <chr>          <date>      <dbl>
 1 Johor All      assault  causing_injury 2016-01-01    708
 2 Johor All      assault  causing_injury 2017-01-01    614
 3 Johor All      assault  causing_injury 2018-01-01    578
 4 Johor All      assault  causing_injury 2019-01-01    599
 5 Johor All      assault  causing_injury 2020-01-01    447
 6 Johor All      assault  causing_injury 2021-01-01    365
 7 Johor All      assault  causing_injury 2022-01-01    333
 8 Johor All      assault  murder         2016-01-01     70
 9 Johor All      assault  murder         2017-01-01     66
10 Johor All      assault  murder         2018-01-01     43
# ℹ 998 more rows
…
crime_district_malaysia

Simple feature collection with 1009 features and 5 fields
Geometry type: MULTIPOLYGON
Dimension:     XY
Bounding box:  xmin: 9213.943 ymin: 6984.585 xmax: 34801.1 ymax: 36915.7
Projected CRS: Kertau (RSO) / RSO Malaya (ch)

Warning: Could not parse expression: '`British` * `chain` * (`Sears` * ^(1922)
* `truncated`)'. Returning as a single symbolic unit()

# A tibble: 1,009 × 6
   name                                geometry category type  date       crimes
   <chr>                         <MULTIPOLYGON> <chr>    <chr> <date>      <dbl>
 1 Perlis (((13243.37 35914.48, 13234 35834.73… assault  caus… 2016-01-01     52
 2 Perlis (((13243.37 35914.48, 13234 35834.73… assault  caus… 2017-01-01     47
 3 Perlis (((13243.37 35914.48, 13234 35834.73… assault  caus… 2018-01-01     45
 4 Perlis (((13243.37 35914.48, 13234 35834.73… assault  caus… 2019-01-01     60
 5 Perlis (((13243.37 35914.48, 13234 35834.73… assault  caus… 2020-01-01     40
 6 Perlis (((13243.37 35914.48, 13234 35834.73… assault  caus… 2021-01-01     38
 7 Perlis (((13243.37 35914.48, 13234 35834.73… assault  caus… 2022-01-01     33
 8 Perlis (((13243.37 35914.48, 13234 35834.73… assault  murd… 2016-01-01      0
 9 Perlis (((13243.37 35914.48, 13234 35834.73… assault  murd… 2017-01-01      2
10 Perlis (((13243.37 35914.48, 13234 35834.73… assault  murd… 2018-01-01      1
# ℹ 999 more rows
…
